…
Simulation done

Results:
# A tibble: 72 x 7
   name     type           VE_est_mean VE_est_sd n_study_mean VE_true  sens
   <chr>    <fct>                <dbl>     <dbl>        <dbl>   <dbl> <dbl>
 1 adults   administrative       0.321    0.0859       13140    0.514  0.6 
 2 adults   surveillance         0.404    0.154          644.   0.514  0.6 
 3 children administrative       0.461    0.239         1855.   0.514  0.6 
 4 children surveillance         0.568    0.330          230.   0.514  0.6 
 5 elderly  administrative       0.324    0.201         1972.   0.514  0.6 
 6 elderly  surveillance         0.338    0.354          226.   0.514  0.6 
 7 overall  administrative       0.308    0.0666       16967.   0.514  0.6 
 8 overall  surveillance         0.346    0.123         1100.   0.514  0.6 
 9 adults   administrative       0.345    0.0725       13140    0.514  0.65
10 adults   surveillance         0.432    0.134          628.   0.514  0.65
# ... with 62 more rows
…
