…
Simulation done

Results:
# A tibble: 48 x 7
   name     type           VE_est_mean VE_est_sd n_study_mean VE_true IP_nonflu
   <chr>    <fct>                <dbl>     <dbl>        <dbl>   <dbl>     <dbl>
 1 adults   administrative       0.365    0.0537       13140    0.514       0.1
 2 adults   surveillance         0.459    0.127          628.   0.514       0.1
 3 children administrative       0.486    0.230         1858.   0.514       0.1
 4 children surveillance         0.532    0.300          228.   0.514       0.1
 5 elderly  administrative       0.356    0.142         1970.   0.514       0.1
 6 elderly  surveillance         0.385    0.208          226.   0.514       0.1
 7 overall  administrative       0.356    0.0561       16968.   0.514       0.1
 8 overall  surveillance         0.424    0.0796        1082.   0.514       0.1
 9 adults   administrative       0.402    0.0503       13140    0.514       0.2
10 adults   surveillance         0.497    0.0756        1079.   0.514       0.2
# ... with 38 more rows
…
