…
Simulation done

Results:
# A tibble: 88 x 7
   name     type           VE_est_mean VE_est_sd n_study_mean VE_true p_test_ari
   <chr>    <fct>                <dbl>     <dbl>        <dbl>   <dbl>      <dbl>
 1 adults   administrative     NaN       NaN              0     0.514        0  
 2 adults   surveillance       NaN       NaN              0     0.514        0  
 3 children administrative       0.444     0.205       1858.    0.514        0  
 4 children surveillance         0.557     0.298        231.    0.514        0  
 5 elderly  administrative       0.274     0.176       1968.    0.514        0  
 6 elderly  surveillance         0.356     0.265        230.    0.514        0  
 7 overall  administrative       0.323     0.102       3826.    0.514        0  
 8 overall  surveillance         0.433     0.152        462.    0.514        0  
 9 adults   administrative       0.350     0.202       1304.    0.514        0.1
10 adults   surveillance         0.347     0.507         64.1   0.514        0.1
# ... with 78 more rows
…
