…
Simulation done

Results:
# A tibble: 88 x 7
   name     type        VE_est_mean VE_est_sd n_study_mean VE_true p_test_nonari
   <chr>    <fct>             <dbl>     <dbl>        <dbl>   <dbl>         <dbl>
 1 adults   administra~       0.481    0.153          633.   0.514           0  
 2 adults   surveillan~       0.481    0.153          633.   0.514           0  
 3 children administra~       0.497    0.177         1854.   0.514           0  
 4 children surveillan~       0.550    0.280          222.   0.514           0  
 5 elderly  administra~       0.254    0.181         1966.   0.514           0  
 6 elderly  surveillan~       0.239    0.303          223.   0.514           0  
 7 overall  administra~       0.506    0.0650        4453    0.514           0  
 8 overall  surveillan~       0.420    0.0907        1078.   0.514           0  
 9 adults   administra~       0.433    0.115         1878.   0.514           0.1
10 adults   surveillan~       0.434    0.132          632.   0.514           0.1
# ... with 78 more rows
…
