…
Simulation done

Results:
# A tibble: 22 x 7
   name     type           VE_est_mean VE_est_sd n_study_mean VE_true p_test_ari
   <chr>    <fct>                <dbl>     <dbl>        <dbl>   <dbl>      <dbl>
 1 children administrative     NaN      NaN                0     0.63        0  
 2 children surveillance       NaN      NaN                0     0.63        0  
 3 children administrative       0.446    0.272         1984.    0.63        0.1
 4 children surveillance         0.613    0.230          248.    0.63        0.1
 5 children administrative       0.462    0.153         3982.    0.63        0.2
 6 children surveillance         0.558    0.198          490.    0.63        0.2
 7 children administrative       0.490    0.127         6002.    0.63        0.3
 8 children surveillance         0.565    0.168          730.    0.63        0.3
 9 children administrative       0.482    0.0988        8012.    0.63        0.4
10 children surveillance         0.586    0.144         1004.    0.63        0.4
# ... with 12 more rows
…
