…
Simulation done

Results:
# A tibble: 22 x 7
   name       type           VE_est_mean VE_est_sd n_study_mean VE_true    VE
   <chr>      <fct>                <dbl>     <dbl>        <dbl>   <dbl> <dbl>
 1 special_no administrative   -0.000917    0.0306       20000      0     0  
 2 special_no surveillance      0.00477     0.0327       12013      0     0  
 3 special_no administrative    0.128       0.0248       20000      0.1   0.1
 4 special_no surveillance      0.0957      0.0322       11718.     0.1   0.1
 5 special_no administrative    0.259       0.0225       20000      0.2   0.2
 6 special_no surveillance      0.195       0.0374       11400.     0.2   0.2
 7 special_no administrative    0.375       0.0229       20000      0.3   0.3
 8 special_no surveillance      0.300       0.0286       11089.     0.3   0.3
 9 special_no administrative    0.492       0.0142       20000      0.4   0.4
10 special_no surveillance      0.403       0.0217       10803.     0.4   0.4
# ... with 12 more rows
…
