…
Simulation done

Results:
# A tibble: 22 x 7
   name     type        VE_est_mean VE_est_sd n_study_mean VE_true p_test_nonari
   <chr>    <fct>             <dbl>     <dbl>        <dbl>   <dbl>         <dbl>
 1 children administra~       0.585    0.0881        2473.    0.63           0  
 2 children surveillan~       0.585    0.0881        2473.    0.63           0  
 3 children administra~       0.594    0.0545        4205.    0.63           0.1
 4 children surveillan~       0.604    0.0606        2450.    0.63           0.1
 5 children administra~       0.570    0.0604        5949.    0.63           0.2
 6 children surveillan~       0.601    0.0757        2448.    0.63           0.2
 7 children administra~       0.528    0.0929        7714.    0.63           0.3
 8 children surveillan~       0.562    0.118         2475.    0.63           0.3
 9 children administra~       0.528    0.0626        9477.    0.63           0.4
10 children surveillan~       0.564    0.0712        2446     0.63           0.4
# ... with 12 more rows
…
