…
Simulation done

Results:
# A tibble: 48 x 7
   name     type           VE_est_mean VE_est_sd n_study_mean VE_true IP_flu
   <chr>    <fct>                <dbl>     <dbl>        <dbl>   <dbl>  <dbl>
 1 adults   administrative       0.458    0.0460       13140    0.514    0.1
 2 adults   surveillance         0.486    0.102          834.   0.514    0.1
 3 children administrative       0.585    0.147         1853.   0.514    0.1
 4 children surveillance         0.695    0.177          228.   0.514    0.1
 5 elderly  administrative       0.297    0.164         1973.   0.514    0.1
 6 elderly  surveillance         0.367    0.230          229.   0.514    0.1
 7 overall  administrative       0.469    0.0389       16966.   0.514    0.1
 8 overall  surveillance         0.510    0.0747        1292.   0.514    0.1
 9 adults   administrative       0.525    0.0287       13140    0.514    0.2
10 adults   surveillance         0.431    0.0946        1194.   0.514    0.2
# ... with 38 more rows
…
