…
Simulation done

Results:
# A tibble: 22 x 7
   name     type           VE_est_mean VE_est_sd n_study_mean VE_true    VE
   <chr>    <fct>                <dbl>     <dbl>        <dbl>   <dbl> <dbl>
 1 children administrative     -0.0311    0.0935       20000      0     0  
 2 children surveillance       -0.0109    0.146         2525.     0     0  
 3 children administrative      0.0817    0.0862       20000      0.1   0.1
 4 children surveillance        0.108     0.126         2499.     0.1   0.1
 5 children administrative      0.147     0.0976       20000      0.2   0.2
 6 children surveillance        0.125     0.113         2487.     0.2   0.2
 7 children administrative      0.247     0.0853       20000      0.3   0.3
 8 children surveillance        0.285     0.137         2508.     0.3   0.3
 9 children administrative      0.303     0.0710       20000      0.4   0.4
10 children surveillance        0.382     0.0957        2474.     0.4   0.4
# ... with 12 more rows
…
